%YAML 1.1
%TAG !u! tag:unity3d.com,2011:
--- !u!1001 &6499135415454479807
PrefabInstance:
  m_ObjectHideFlags: 0
  serializedVersion: 2
  m_Modification:
    m_TransformParent: {fileID: 0}
    m_Modifications:
    - target: {fileID: 985390958427401365, guid: 63323d2b031cec14eb418efc52ade10e, type: 3}
      propertyPath: m_Name
      value: Tile_RoadCorner180
      objectReference: {fileID: 0}
    - target: {fileID: 2382323204721740462, guid: 63323d2b031cec14eb418efc52ade10e, type: 3}
      propertyPath: m_RootOrder
      value: 0
      objectReference: {fileID: 0}
    - target: {fileID: 2382323204721740462, guid: 63323d2b031cec14eb418efc52ade10e, type: 3}
      propertyPath: m_LocalPosition.x
      value: 0
      objectReference: {fileID: 0}
    - target: {fileID: 2382323204721740462, guid: 63323d2b031cec14eb418efc52ade10e, type: 3}
      propertyPath: m_LocalPosition.y
      value: 0
      objectReference: {fileID: 0}
    - target: {fileID: 2382323204721740462, guid: 63323d2b031cec14eb418efc52ade10e, type: 3}
      propertyPath: m_LocalPosition.z
      value: 0
      objectReference: {fileID: 0}
    - target: {fileID: 2382323204721740462, guid: 63323d2b031cec14eb418efc52ade10e, type: 3}
      propertyPath: m_LocalRotation.w
      value: 1
      objectReference: {fileID: 0}
    - target: {fileID: 2382323204721740462, guid: 63323d2b031cec14eb418efc52ade10e, type: 3}
      propertyPath: m_LocalRotation.x
      value: 0
      objectReference: {fileID: 0}
    - target: {fileID: 2382323204721740462, guid: 63323d2b031cec14eb418efc52ade10e, type: 3}
      propertyPath: m_LocalRotation.y
      value: 0
      objectReference: {fileID: 0}
    - target: {fileID: 2382323204721740462, guid: 63323d2b031cec14eb418efc52ade10e, type: 3}
      propertyPath: m_LocalRotation.z
      value: 0
      objectReference: {fileID: 0}
    - target: {fileID: 2382323204721740462, guid: 63323d2b031cec14eb418efc52ade10e, type: 3}
      propertyPath: m_LocalEulerAnglesHint.x
      value: 0
      objectReference: {fileID: 0}
    - target: {fileID: 2382323204721740462, guid: 63323d2b031cec14eb418efc52ade10e, type: 3}
      propertyPath: m_LocalEulerAnglesHint.y
      value: 0
      objectReference: {fileID: 0}
    - target: {fileID: 2382323204721740462, guid: 63323d2b031cec14eb418efc52ade10e, type: 3}
      propertyPath: m_LocalEulerAnglesHint.z
      value: 0
      objectReference: {fileID: 0}
    - target: {fileID: 8104389370107761797, guid: 63323d2b031cec14eb418efc52ade10e, type: 3}
      propertyPath: m_LocalRotation.w
      value: 0
      objectReference: {fileID: 0}
    - target: {fileID: 8104389370107761797, guid: 63323d2b031cec14eb418efc52ade10e, type: 3}
      propertyPath: m_LocalRotation.x
      value: 0
      objectReference: {fileID: 0}
    - target: {fileID: 8104389370107761797, guid: 63323d2b031cec14eb418efc52ade10e, type: 3}
      propertyPath: m_LocalRotation.y
      value: 1
      objectReference: {fileID: 0}
    - target: {fileID: 8104389370107761797, guid: 63323d2b031cec14eb418efc52ade10e, type: 3}
      propertyPath: m_LocalRotation.z
      value: 0
      objectReference: {fileID: 0}
    - target: {fileID: 8104389370107761797, guid: 63323d2b031cec14eb418efc52ade10e, type: 3}
      propertyPath: m_LocalEulerAnglesHint.y
      value: 180
      objectReference: {fileID: 0}
    m_RemovedComponents: []
  m_SourcePrefab: {fileID: 100100000, guid: 63323d2b031cec14eb418efc52ade10e, type: 3}
